Lab3/waveform.vcd
$version Generated by VerilatedVcd $end
$timescale 1ps $end
 $scope module TOP $end
  $var wire 1 # reset $end
  $var wire 1 $ clk $end
  $var wire 1 % is_halted $end
  $var wire 32 & print_reg[0] [31:0] $end
  $var wire 32 ' print_reg[1] [31:0] $end
  $var wire 32 ( print_reg[2] [31:0] $end
  $var wire 32 ) print_reg[3] [31:0] $end
  $var wire 32 * print_reg[4] [31:0] $end
  $var wire 32 + print_reg[5] [31:0] $end
  $var wire 32 , print_reg[6] [31:0] $end
  $var wire 32 - print_reg[7] [31:0] $end
  $var wire 32 . print_reg[8] [31:0] $end
  $var wire 32 / print_reg[9] [31:0] $end
  $var wire 32 0 print_reg[10] [31:0] $end
  $var wire 32 1 print_reg[11] [31:0] $end
  $var wire 32 2 print_reg[12] [31:0] $end
  $var wire 32 3 print_reg[13] [31:0] $end
  $var wire 32 4 print_reg[14] [31:0] $end
  $var wire 32 5 print_reg[15] [31:0] $end
  $var wire 32 6 print_reg[16] [31:0] $end
  $var wire 32 7 print_reg[17] [31:0] $end
  $var wire 32 8 print_reg[18] [31:0] $end
  $var wire 32 9 print_reg[19] [31:0] $end
  $var wire 32 : print_reg[20] [31:0] $end
  $var wire 32 ; print_reg[21] [31:0] $end
  $var wire 32 < print_reg[22] [31:0] $end
  $var wire 32 = print_reg[23] [31:0] $end
  $var wire 32 > print_reg[24] [31:0] $end
  $var wire 32 ? print_reg[25] [31:0] $end
  $var wire 32 @ print_reg[26] [31:0] $end
  $var wire 32 A print_reg[27] [31:0] $end
  $var wire 32 B print_reg[28] [31:0] $end
  $var wire 32 C print_reg[29] [31:0] $end
  $var wire 32 D print_reg[30] [31:0] $end
  $var wire 32 E print_reg[31] [31:0] $end
  $scope module top $end
   $var wire 1 F reset $end
   $var wire 1 G clk $end
   $var wire 1 H is_halted $end
   $var wire 32 I print_reg[0] [31:0] $end
   $var wire 32 J print_reg[1] [31:0] $end
   $var wire 32 K print_reg[2] [31:0] $end
   $var wire 32 L print_reg[3] [31:0] $end
   $var wire 32 M print_reg[4] [31:0] $end
   $var wire 32 N print_reg[5] [31:0] $end
   $var wire 32 O print_reg[6] [31:0] $end
   $var wire 32 P print_reg[7] [31:0] $end
   $var wire 32 Q print_reg[8] [31:0] $end
   $var wire 32 R print_reg[9] [31:0] $end
   $var wire 32 S print_reg[10] [31:0] $end
   $var wire 32 T print_reg[11] [31:0] $end
   $var wire 32 U print_reg[12] [31:0] $end
   $var wire 32 V print_reg[13] [31:0] $end
   $var wire 32 W print_reg[14] [31:0] $end
   $var wire 32 X print_reg[15] [31:0] $end
   $var wire 32 Y print_reg[16] [31:0] $end
   $var wire 32 Z print_reg[17] [31:0] $end
   $var wire 32 [ print_reg[18] [31:0] $end
   $var wire 32 \ print_reg[19] [31:0] $end
   $var wire 32 ] print_reg[20] [31:0] $end
   $var wire 32 ^ print_reg[21] [31:0] $end
   $var wire 32 _ print_reg[22] [31:0] $end
   $var wire 32 ` print_reg[23] [31:0] $end
   $var wire 32 a print_reg[24] [31:0] $end
   $var wire 32 b print_reg[25] [31:0] $end
   $var wire 32 c print_reg[26] [31:0] $end
   $var wire 32 d print_reg[27] [31:0] $end
   $var wire 32 e print_reg[28] [31:0] $end
   $var wire 32 f print_reg[29] [31:0] $end
   $var wire 32 g print_reg[30] [31:0] $end
   $var wire 32 h print_reg[31] [31:0] $end
   $scope module cpu $end
    $var wire 1 i reset $end
    $var wire 1 j clk $end
    $var wire 1 k is_halted $end
    $var wire 32 l print_reg[0] [31:0] $end
    $var wire 32 m print_reg[1] [31:0] $end
    $var wire 32 n print_reg[2] [31:0] $end
    $var wire 32 o print_reg[3] [31:0] $end
    $var wire 32 p print_reg[4] [31:0] $end
    $var wire 32 q print_reg[5] [31:0] $end
    $var wire 32 r print_reg[6] [31:0] $end
    $var wire 32 s print_reg[7] [31:0] $end
    $var wire 32 t print_reg[8] [31:0] $end
    $var wire 32 u print_reg[9] [31:0] $end
    $var wire 32 v print_reg[10] [31:0] $end
    $var wire 32 w print_reg[11] [31:0] $end
    $var wire 32 x print_reg[12] [31:0] $end
    $var wire 32 y print_reg[13] [31:0] $end
    $var wire 32 z print_reg[14] [31:0] $end
    $var wire 32 { print_reg[15] [31:0] $end
    $var wire 32 | print_reg[16] [31:0] $end
    $var wire 32 } print_reg[17] [31:0] $end
    $var wire 32 ~ print_reg[18] [31:0] $end
    $var wire 32 !! print_reg[19] [31:0] $end
    $var wire 32 "! print_reg[20] [31:0] $end
    $var wire 32 #! print_reg[21] [31:0] $end
    $var wire 32 $! print_reg[22] [31:0] $end
    $var wire 32 %! print_reg[23] [31:0] $end
    $var wire 32 &! print_reg[24] [31:0] $end
    $var wire 32 '! print_reg[25] [31:0] $end
    $var wire 32 (! print_reg[26] [31:0] $end
    $var wire 32 )! print_reg[27] [31:0] $end
    $var wire 32 *! print_reg[28] [31:0] $end
    $var wire 32 +! print_reg[29] [31:0] $end
    $var wire 32 ,! print_reg[30] [31:0] $end
    $var wire 32 -! print_reg[31] [31:0] $end
    $var wire 32 .! mem_addr [31:0] $end
    $var wire 32 /! mem_data [31:0] $end
    $var wire 32 0! next_pc [31:0] $end
    $var wire 32 1! current_pc [31:0] $end
    $var wire 32 2! ALUSrcAout [31:0] $end
    $var wire 32 3! ALUSrcBout [31:0] $end
    $var wire 32 4! RegSource [31:0] $end
    $var wire 32 5! alu_result [31:0] $end
    $var wire 32 6! imm_gen_out [31:0] $end
    $var wire 32 7! PCSrcWire [31:0] $end
    $var wire 32 8! x17 [31:0] $end
    $var wire 32 9! reg_to_A [31:0] $end
    $var wire 32 :! reg_to_B [31:0] $end
    $var wire 32 ;! wire_IR [31:0] $end
    $var wire 32 <! wire_MDR [31:0] $end
    $var wire 32 =! wire_A [31:0] $end
    $var wire 32 >! wire_B [31:0] $end
    $var wire 32 ?! wire_ALUOut [31:0] $end
    $var wire 4 @! alu_op [3:0] $end
    $var wire 2 A! ALUCtrlOp [1:0] $end
    $var wire 1 B! MemToReg $end
    $var wire 1 C! MemWrite $end
    $var wire 1 D! MemRead $end
    $var wire 1 E! PCWrite $end
    $var wire 1 F! PCWriteNotCond $end
    $var wire 1 G! PCSource $end
    $var wire 1 H! ALUOp $end
    $var wire 2 I! ALUSrcB [1:0] $end
    $var wire 1 J! ALUSrcA $end
    $var wire 1 K! RegWrite $end
    $var wire 1 L! RegSoruce $end
    $var wire 1 M! bcond $end
    $var wire 1 N! cond1 $end
    $var wire 1 O! cond2 $end
    $var wire 1 P! IorD $end
    $var wire 1 Q! IRWrite $end
    $var wire 1 R! is_ecall $end
    $var wire 32 S! IR [31:0] $end
    $var wire 32 T! MDR [31:0] $end
    $var wire 32 U! A [31:0] $end
    $var wire 32 V! B [31:0] $end
    $var wire 32 W! ALUOut [31:0] $end
    $var wire 32 X! x17_val [31:0] $end
    $scope module ALUOutmux $end
     $var wire 32 Y! in0 [31:0] $end
     $var wire 32 Z! in1 [31:0] $end
     $var wire 1 [! sel $end
     $var wire 32 \! out [31:0] $end
    $upscope $end
    $scope module ALUSourceAmux $end
     $var wire 32 ]! in0 [31:0] $end
     $var wire 32 ^! in1 [31:0] $end
     $var wire 1 _! sel $end
     $var wire 32 `! out [31:0] $end
    $upscope $end
    $scope module ALUSourceBmux $end
     $var wire 32 a! in0 [31:0] $end
     $var wire 32 b! in1 [31:0] $end
     $var wire 32 c! in2 [31:0] $end
     $var wire 2 d! sel [1:0] $end
     $var wire 32 e! out [31:0] $end
    $upscope $end
    $scope module MemorySorucemux $end
     $var wire 32 f! in0 [31:0] $end
     $var wire 32 g! in1 [31:0] $end
     $var wire 1 h! sel $end
     $var wire 32 i! out [31:0] $end
    $upscope $end
    $scope module RegSourceMux $end
     $var wire 32 j! in0 [31:0] $end
     $var wire 32 k! in1 [31:0] $end
     $var wire 1 l! sel $end
     $var wire 32 m! out [31:0] $end
    $upscope $end
    $scope module alu $end
     $var wire 32 *# data_width [31:0] $end
     $var wire 32 n! alu_in_1 [31:0] $end
     $var wire 32 o! alu_in_2 [31:0] $end
     $var wire 4 p! alu_op [3:0] $end
     $var wire 32 q! alu_result [31:0] $end
     $var wire 1 r! alu_bcond $end
    $upscope $end
    $scope module alu_ctrl_unit $end
     $var wire 32 s! instruction [31:0] $end
     $var wire 2 t! alu_ctrl_op [1:0] $end
     $var wire 4 u! alu_op [3:0] $end
    $upscope $end
    $scope module ctrl_unit $end
     $var wire 7 v! opcode [6:0] $end
     $var wire 32 w! x17_val [31:0] $end
     $var wire 1 x! clk $end
     $var wire 1 y! reset $end
     $var wire 1 z! PCWrite $end
     $var wire 1 {! PCWriteNotCond $end
     $var wire 1 |! IRWrite $end
     $var wire 2 }! ALUCtrlOp [1:0] $end
     $var wire 1 ~! mem_read $end
     $var wire 1 !" mem_to_reg $end
     $var wire 1 "" mem_write $end
     $var wire 1 #" alu_srcA $end
     $var wire 2 $" alu_srcB [1:0] $end
     $var wire 1 %" RegWrite $end
     $var wire 1 &" PCSource $end
     $var wire 1 '" IorD $end
     $var wire 1 (" is_ecall $end
     $var wire 4 )" current_state [3:0] $end
     $var wire 4 *" next_state [3:0] $end
    $upscope $end
    $scope module imm_gen $end
     $var wire 32 +" instruction [31:0] $end
     $var wire 32 ," imm_gen_out [31:0] $end
     $var wire 7 -" opcode [6:0] $end
     $var wire 12 ." immediate [11:0] $end
     $var wire 12 /" imm [11:0] $end
    $upscope $end
    $scope module memory $end
     $var wire 32 +# MEM_DEPTH [31:0] $end
     $var wire 1 0" reset $end
     $var wire 1 1" clk $end
     $var wire 32 2" addr [31:0] $end
     $var wire 32 3" din [31:0] $end
     $var wire 1 4" mem_read $end
     $var wire 1 5" mem_write $end
     $var wire 32 6" dout [31:0] $end
     $var wire 32 7" i [31:0] $end
     $var wire 32 8" mem_addr [31:0] $end
    $upscope $end
    $scope module pc $end
     $var wire 1 9" reset $end
     $var wire 1 :" clk $end
     $var wire 1 ;" pc_write $end
     $var wire 32 <" next_pc [31:0] $end
     $var wire 32 =" current_pc [31:0] $end
    $upscope $end
    $scope module reg_file $end
     $var wire 1 >" reset $end
     $var wire 1 ?" clk $end
     $var wire 5 @" rs1 [4:0] $end
     $var wire 5 A" rs2 [4:0] $end
     $var wire 5 B" rd [4:0] $end
     $var wire 32 C" rd_din [31:0] $end
     $var wire 1 D" write_enable $end
     $var wire 32 E" rs1_dout [31:0] $end
     $var wire 32 F" rs2_dout [31:0] $end
     $var wire 32 G" print_reg[0] [31:0] $end
     $var wire 32 H" print_reg[1] [31:0] $end
     $var wire 32 I" print_reg[2] [31:0] $end
     $var wire 32 J" print_reg[3] [31:0] $end
     $var wire 32 K" print_reg[4] [31:0] $end
     $var wire 32 L" print_reg[5] [31:0] $end
     $var wire 32 M" print_reg[6] [31:0] $end
     $var wire 32 N" print_reg[7] [31:0] $end
     $var wire 32 O" print_reg[8] [31:0] $end
     $var wire 32 P" print_reg[9] [31:0] $end
     $var wire 32 Q" print_reg[10] [31:0] $end
     $var wire 32 R" print_reg[11] [31:0] $end
     $var wire 32 S" print_reg[12] [31:0] $end
     $var wire 32 T" print_reg[13] [31:0] $end
     $var wire 32 U" print_reg[14] [31:0] $end
     $var wire 32 V" print_reg[15] [31:0] $end
     $var wire 32 W" print_reg[16] [31:0] $end
     $var wire 32 X" print_reg[17] [31:0] $end
     $var wire 32 Y" print_reg[18] [31:0] $end
     $var wire 32 Z" print_reg[19] [31:0] $end
     $var wire 32 [" print_reg[20] [31:0] $end
     $var wire 32 \" print_reg[21] [31:0] $end
     $var wire 32 ]" print_reg[22] [31:0] $end
     $var wire 32 ^" print_reg[23] [31:0] $end
     $var wire 32 _" print_reg[24] [31:0] $end
     $var wire 32 `" print_reg[25] [31:0] $end
     $var wire 32 a" print_reg[26] [31:0] $end
     $var wire 32 b" print_reg[27] [31:0] $end
     $var wire 32 c" print_reg[28] [31:0] $end
     $var wire 32 d" print_reg[29] [31:0] $end
     $var wire 32 e" print_reg[30] [31:0] $end
     $var wire 32 f" print_reg[31] [31:0] $end
     $var wire 32 g" i [31:0] $end
     $var wire 32 h" rf[0] [31:0] $end
     $var wire 32 i" rf[1] [31:0] $end
     $var wire 32 j" rf[2] [31:0] $end
     $var wire 32 k" rf[3] [31:0] $end
     $var wire 32 l" rf[4] [31:0] $end
     $var wire 32 m" rf[5] [31:0] $end
     $var wire 32 n" rf[6] [31:0] $end
     $var wire 32 o" rf[7] [31:0] $end
     $var wire 32 p" rf[8] [31:0] $end
     $var wire 32 q" rf[9] [31:0] $end
     $var wire 32 r" rf[10] [31:0] $end
     $var wire 32 s" rf[11] [31:0] $end
     $var wire 32 t" rf[12] [31:0] $end
     $var wire 32 u" rf[13] [31:0] $end
     $var wire 32 v" rf[14] [31:0] $end
     $var wire 32 w" rf[15] [31:0] $end
     $var wire 32 x" rf[16] [31:0] $end
     $var wire 32 y" rf[17] [31:0] $end
     $var wire 32 z" rf[18] [31:0] $end
     $var wire 32 {" rf[19] [31:0] $end
     $var wire 32 |" rf[20] [31:0] $end
     $var wire 32 }" rf[21] [31:0] $end
     $var wire 32 ~" rf[22] [31:0] $end
     $var wire 32 !# rf[23] [31:0] $end
     $var wire 32 "# rf[24] [31:0] $end
     $var wire 32 ## rf[25] [31:0] $end
     $var wire 32 $# rf[26] [31:0] $end
     $var wire 32 %# rf[27] [31:0] $end
     $var wire 32 &# rf[28] [31:0] $end
     $var wire 32 '# rf[29] [31:0] $end
     $var wire 32 (# rf[30] [31:0] $end
     $var wire 32 )# rf[31] [31:0] $end
    $upscope $end
   $upscope $end
  $upscope $end
 $upscope $end
$enddefinitions $end


#0
0#
0$
0%
b00001011100111001110010100111111 &
b11000100001000000111110100111001 '
b11100010101011101101110011111001 (
b10111010100001101000010011010111 )
b11011111001101111101111101111010 *
b10010010011000000001101001110110 +
b10110101001110001111011001111100 ,
b11110001010101010111000001000010 -
b00000011100111110011101010101110 .
b10011111000101111110010001110110 /
b01011011100001010111011000101011 0
b00110011100000010100000100100111 1
b00110100001111110111010111010010 2
b10010101101111010001111010100010 3
b10100101010010100110001100000110 4
b11000000101110000000010100001001 5
b00110010000110101000101000001111 6
b01010010010011110101000111011100 7
b10000010001100010101001011100100 8
b00010000100001100110010101011001 9
b01001011110100001101101101111001 :
b10111000010001100110101010101100 ;
b00100010000011001001101010000000 <
b00111110001000110100010111110111 =
b11110011010010101001000011101010 >
b00110110111101111000001010001101 ?
b01100110001100100101011110101111 @
b01001011111100101111100010001001 A
b00001111011010010011111100010000 B
b00100101001001101001001111001010 C
b10000111111000110101100111000110 D
b11101101011001000111000010101011 E
0F
0G
0H
b00001011100111001110010100111111 I
b11000100001000000111110100111001 J
b11100010101011101101110011111001 K
b10111010100001101000010011010111 L
b11011111001101111101111101111010 M
b10010010011000000001101001110110 N
b10110101001110001111011001111100 O
b11110001010101010111000001000010 P
b00000011100111110011101010101110 Q
b10011111000101111110010001110110 R
b01011011100001010111011000101011 S
b00110011100000010100000100100111 T
b00110100001111110111010111010010 U
b10010101101111010001111010100010 V
b10100101010010100110001100000110 W
b11000000101110000000010100001001 X
b00110010000110101000101000001111 Y
b01010010010011110101000111011100 Z
b10000010001100010101001011100100 [
b00010000100001100110010101011001 \
b01001011110100001101101101111001 ]
b10111000010001100110101010101100 ^
b00100010000011001001101010000000 _
b00111110001000110100010111110111 `
b11110011010010101001000011101010 a
b00110110111101111000001010001101 b
b01100110001100100101011110101111 c
b01001011111100101111100010001001 d
b00001111011010010011111100010000 e
b00100101001001101001001111001010 f
b10000111111000110101100111000110 g
b11101101011001000111000010101011 h
0i
0j
0k
b00001011100111001110010100111111 l
b11000100001000000111110100111001 m
b11100010101011101101110011111001 n
b10111010100001101000010011010111 o
b11011111001101111101111101111010 p
b10010010011000000001101001110110 q
b10110101001110001111011001111100 r
b11110001010101010111000001000010 s
b00000011100111110011101010101110 t
b10011111000101111110010001110110 u
b01011011100001010111011000101011 v
b00110011100000010100000100100111 w
b00110100001111110111010111010010 x
b10010101101111010001111010100010 y
b10100101010010100110001100000110 z
b11000000101110000000010100001001 {
b00110010000110101000101000001111 |
b01010010010011110101000111011100 }
b10000010001100010101001011100100 ~
b00010000100001100110010101011001 !!
b01001011110100001101101101111001 "!
b10111000010001100110101010101100 #!
b00100010000011001001101010000000 $!
b00111110001000110100010111110111 %!
b11110011010010101001000011101010 &!
b00110110111101111000001010001101 '!
b01100110001100100101011110101111 (!
b01001011111100101111100010001001 )!
b00001111011010010011111100010000 *!
b00100101001001101001001111001010 +!
b10000111111000110101100111000110 ,!
b11101101011001000111000010101011 -!
b00000101111010011101110100100001 .!
b00000000000000000000000000000000 /!
b10100001100100010011101011100101 0!
b00000101111010011101110100100001 1!
b00000101111010011101110100100001 2!
b10001101001111111101100010010101 3!
b00010101100110101001011110001010 4!
b00000000000000000000000000000000 5!
b10001101001111111101100010010101 6!
b00010101100110101001011110001010 7!
b10010001101011110100011100111101 8!
b11101101011001000111000010101011 9!
b00010000100001100110010101011001 :!
b10001101001111111101100010010101 ;!
b10100110000001001010011100111100 <!
b11010100101110010001101101100100 =!
b11011110110111000100000110010101 >!
b00010101100110101001011110001010 ?!
b0010 @!
b00 A!
0B!
1C!
0D!
0E!
0F!
1G!
0H!
b10 I!
0J!
0K!
1L!
0M!
0N!
0O!
0P!
0Q!
0R!
b10001101001111111101100010010101 S!
b10100110000001001010011100111100 T!
b11010100101110010001101101100100 U!
b11011110110111000100000110010101 V!
b00010101100110101001011110001010 W!
b10010001101011110100011100111101 X!
b00000000000000000000000000000000 Y!
b00010101100110101001011110001010 Z!
1[!
b00010101100110101001011110001010 \!
b00000101111010011101110100100001 ]!
b11010100101110010001101101100100 ^!
0_!
b00000101111010011101110100100001 `!
b11011110110111000100000110010101 a!
b00000000000000000000000000000100 b!
b10001101001111111101100010010101 c!
b10 d!
b10001101001111111101100010010101 e!
b00000101111010011101110100100001 f!
b00010101100110101001011110001010 g!
0h!
b00000101111010011101110100100001 i!
b00010101100110101001011110001010 j!
b10100110000001001010011100111100 k!
0l!
b00010101100110101001011110001010 m!
b00000101111010011101110100100001 n!
b10001101001111111101100010010101 o!
b0010 p!
b00000000000000000000000000000000 q!
0r!
b10001101001111111101100010010101 s!
b00 t!
b0010 u!
b0010101 v!
b10010001101011110100011100111101 w!
0x!
0y!
0z!
0{!
0|!
b00 }!
0~!
0!"
1""
0#"
b10 $"
0%"
1&"
0'"
0("
b1010 )"
b1011 *"
b10001101001111111101100010010101 +"
b10001101001111111101100010010101 ,"
b0010101 -"
b100011010011 ."
b100011010001 /"
00"
01"
b00000101111010011101110100100001 2"
b11011110110111000100000110010101 3"
04"
15"
b00000000000000000000000000000000 6"
b01001101111110011000110100101001 7"
b00000001011110100111011101001000 8"
09"
0:"
0;"
b10100001100100010011101011100101 <"
b00000101111010011101110100100001 ="
0>"
0?"
b11111 @"
b10011 A"
b10001 B"
b00010101100110101001011110001010 C"
0D"
b11101101011001000111000010101011 E"
b00010000100001100110010101011001 F"
b00001011100111001110010100111111 G"
b11000100001000000111110100111001 H"
b11100010101011101101110011111001 I"
b10111010100001101000010011010111 J"
b11011111001101111101111101111010 K"
b10010010011000000001101001110110 L"
b10110101001110001111011001111100 M"
b11110001010101010111000001000010 N"
b00000011100111110011101010101110 O"
b10011111000101111110010001110110 P"
b01011011100001010111011000101011 Q"
b00110011100000010100000100100111 R"
b00110100001111110111010111010010 S"
b10010101101111010001111010100010 T"
b10100101010010100110001100000110 U"
b11000000101110000000010100001001 V"
b00110010000110101000101000001111 W"
b01010010010011110101000111011100 X"
b10000010001100010101001011100100 Y"
b00010000100001100110010101011001 Z"
b01001011110100001101101101111001 ["
b10111000010001100110101010101100 \"
b00100010000011001001101010000000 ]"
b00111110001000110100010111110111 ^"
b11110011010010101001000011101010 _"
b00110110111101111000001010001101 `"
b01100110001100100101011110101111 a"
b01001011111100101111100010001001 b"
b00001111011010010011111100010000 c"
b00100101001001101001001111001010 d"
b10000111111000110101100111000110 e"
b11101101011001000111000010101011 f"
b11010101110100110011000111010110 g"
b00001011100111001110010100111111 h"
b11000100001000000111110100111001 i"
b11100010101011101101110011111001 j"
b10111010100001101000010011010111 k"
b11011111001101111101111101111010 l"
b10010010011000000001101001110110 m"
b10110101001110001111011001111100 n"
b11110001010101010111000001000010 o"
b00000011100111110011101010101110 p"
b10011111000101111110010001110110 q"
b01011011100001010111011000101011 r"
b00110011100000010100000100100111 s"
b00110100001111110111010111010010 t"
b10010101101111010001111010100010 u"
b10100101010010100110001100000110 v"
b11000000101110000000010100001001 w"
b00110010000110101000101000001111 x"
b01010010010011110101000111011100 y"
b10000010001100010101001011100100 z"
b00010000100001100110010101011001 {"
b01001011110100001101101101111001 |"
b10111000010001100110101010101100 }"
b00100010000011001001101010000000 ~"
b00111110001000110100010111110111 !#
b11110011010010101001000011101010 "#
b00110110111101111000001010001101 ##
b01100110001100100101011110101111 $#
b01001011111100101111100010001001 %#
b00001111011010010011111100010000 &#
b00100101001001101001001111001010 '#
b10000111111000110101100111000110 (#
b11101101011001000111000010101011 )#
b00000000000000000000000000100000 *#
b00000000000000000100000000000000 +#
#1
1#
1F
1i
1y!
10"
19"
1>"
#2
1$
b00000000000000000000000000000000 &
b00000000000000000000000000000000 '
b00000000000000000010111111111100 (
b00000000000000000000000000000000 )
b00000000000000000000000000000000 *
b00000000000000000000000000000000 +
b00000000000000000000000000000000 ,
b00000000000000000000000000000000 -
b00000000000000000000000000000000 .
b00000000000000000000000000000000 /
b00000000000000000000000000000000 0
b00000000000000000000000000000000 1
b00000000000000000000000000000000 2
b00000000000000000000000000000000 3
b00000000000000000000000000000000 4
b00000000000000000000000000000000 5
b00000000000000000000000000000000 6
b00000000000000000000000000000000 7
b00000000000000000000000000000000 8
b00000000000000000000000000000000 9
b00000000000000000000000000000000 :
b00000000000000000000000000000000 ;
b00000000000000000000000000000000 <
b00000000000000000000000000000000 =
b00000000000000000000000000000000 >
b00000000000000000000000000000000 ?
b00000000000000000000000000000000 @
b00000000000000000000000000000000 A
b00000000000000000000000000000000 B
b00000000000000000000000000000000 C
b00000000000000000000000000000000 D
b00000000000000000000000000000000 E
1G
b00000000000000000000000000000000 I
b00000000000000000000000000000000 J
b00000000000000000010111111111100 K
b00000000000000000000000000000000 L
b00000000000000000000000000000000 M
b00000000000000000000000000000000 N
b00000000000000000000000000000000 O
b00000000000000000000000000000000 P
b00000000000000000000000000000000 Q
b00000000000000000000000000000000 R
b00000000000000000000000000000000 S
b00000000000000000000000000000000 T
b00000000000000000000000000000000 U
b00000000000000000000000000000000 V
b00000000000000000000000000000000 W
b00000000000000000000000000000000 X
b00000000000000000000000000000000 Y
b00000000000000000000000000000000 Z
b00000000000000000000000000000000 [
b00000000000000000000000000000000 \
b00000000000000000000000000000000 ]
b00000000000000000000000000000000 ^
b00000000000000000000000000000000 _
b00000000000000000000000000000000 `
b00000000000000000000000000000000 a
b00000000000000000000000000000000 b
b00000000000000000000000000000000 c
b00000000000000000000000000000000 d
b00000000000000000000000000000000 e
b00000000000000000000000000000000 f
b00000000000000000000000000000000 g
b00000000000000000000000000000000 h
1j
b00000000000000000000000000000000 l
b00000000000000000000000000000000 m
b00000000000000000010111111111100 n
b00000000000000000000000000000000 o
b00000000000000000000000000000000 p
b00000000000000000000000000000000 q
b00000000000000000000000000000000 r
b00000000000000000000000000000000 s
b00000000000000000000000000000000 t
b00000000000000000000000000000000 u
b00000000000000000000000000000000 v
b00000000000000000000000000000000 w
b00000000000000000000000000000000 x
b00000000000000000000000000000000 y
b00000000000000000000000000000000 z
b00000000000000000000000000000000 {
b00000000000000000000000000000000 |
b00000000000000000000000000000000 }
b00000000000000000000000000000000 ~
b00000000000000000000000000000000 !!
b00000000000000000000000000000000 "!
b00000000000000000000000000000000 #!
b00000000000000000000000000000000 $!
b00000000000000000000000000000000 %!
b00000000000000000000000000000000 &!
b00000000000000000000000000000000 '!
b00000000000000000000000000000000 (!
b00000000000000000000000000000000 )!
b00000000000000000000000000000000 *!
b00000000000000000000000000000000 +!
b00000000000000000000000000000000 ,!
b00000000000000000000000000000000 -!
b00000000000000000000000000000000 .!
b11111110000000010000000100010011 /!
b00000000000000000000000000000000 1!
b00000000000000000000000000000000 2!
b00000000000000000000000000000000 3!
b00000000000000000000000000000000 4!
b00000000000000000000000000000000 6!
b00000000000000000000000000000000 7!
b00000000000000000000000000000000 9!
b00000000000000000000000000000000 :!
b00000000000000000000000000000000 ;!
b00000000000000000000000000000000 <!
b00000000000000000000000000000000 =!
b00000000000000000000000000000000 >!
b00000000000000000000000000000000 ?!
0C!
1D!
1E!
0G!
b00 I!
1O!
b00000000000000000000000000000000 S!
b00000000000000000000000000000000 T!
b00000000000000000000000000000000 U!
b00000000000000000000000000000000 V!
b00000000000000000000000000000000 W!
b00000000000000000000000000000000 Z!
0[!
b00000000000000000000000000000000 \!
b00000000000000000000000000000000 ]!
b00000000000000000000000000000000 ^!
b00000000000000000000000000000000 `!
b00000000000000000000000000000000 a!
b00000000000000000000000000000000 c!
b00 d!
b00000000000000000000000000000000 e!
b00000000000000000000000000000000 f!
b00000000000000000000000000000000 g!
b00000000000000000000000000000000 i!
b00000000000000000000000000000000 j!
b00000000000000000000000000000000 k!
b00000000000000000000000000000000 m!
b00000000000000000000000000000000 n!
b00000000000000000000000000000000 o!
b00000000000000000000000000000000 s!
b0000000 v!
1x!
1z!
1~!
0""
b00 $"
0&"
b0001 )"
b0010 *"
b00000000000000000000000000000000 +"
b00000000000000000000000000000000 ,"
b0000000 -"
b000000000000 ."
b000000000000 /"
11"
b00000000000000000000000000000000 2"
b00000000000000000000000000000000 3"
14"
05"
b11111110000000010000000100010011 6"
b00000000000000000100000000000000 7"
b00000000000000000000000000000000 8"
1:"
1;"
b00000000000000000000000000000000 ="
1?"
b00000 @"
b00000 A"
b00000 B"
b00000000000000000000000000000000 C"
b00000000000000000000000000000000 E"
b00000000000000000000000000000000 F"
b00000000000000000000000000000000 G"
b00000000000000000000000000000000 H"
b00000000000000000010111111111100 I"
b00000000000000000000000000000000 J"
b00000000000000000000000000000000 K"
b00000000000000000000000000000000 L"
b00000000000000000000000000000000 M"
b00000000000000000000000000000000 N"
b00000000000000000000000000000000 O"
b00000000000000000000000000000000 P"
b00000000000000000000000000000000 Q"
b00000000000000000000000000000000 R"
b00000000000000000000000000000000 S"
b00000000000000000000000000000000 T"
b00000000000000000000000000000000 U"
b00000000000000000000000000000000 V"
b00000000000000000000000000000000 W"
b00000000000000000000000000000000 X"
b00000000000000000000000000000000 Y"
b00000000000000000000000000000000 Z"
b00000000000000000000000000000000 ["
b00000000000000000000000000000000 \"
b00000000000000000000000000000000 ]"
b00000000000000000000000000000000 ^"
b00000000000000000000000000000000 _"
b00000000000000000000000000000000 `"
b00000000000000000000000000000000 a"
b00000000000000000000000000000000 b"
b00000000000000000000000000000000 c"
b00000000000000000000000000000000 d"
b00000000000000000000000000000000 e"
b00000000000000000000000000000000 f"
b00000000000000000000000000100000 g"
b00000000000000000000000000000000 h"
b00000000000000000000000000000000 i"
b00000000000000000010111111111100 j"
b00000000000000000000000000000000 k"
b00000000000000000000000000000000 l"
b00000000000000000000000000000000 m"
b00000000000000000000000000000000 n"
b00000000000000000000000000000000 o"
b00000000000000000000000000000000 p"
b00000000000000000000000000000000 q"
b00000000000000000000000000000000 r"
b00000000000000000000000000000000 s"
b00000000000000000000000000000000 t"
b00000000000000000000000000000000 u"
b00000000000000000000000000000000 v"
b00000000000000000000000000000000 w"
b00000000000000000000000000000000 x"
b00000000000000000000000000000000 y"
b00000000000000000000000000000000 z"
b00000000000000000000000000000000 {"
b00000000000000000000000000000000 |"
b00000000000000000000000000000000 }"
b00000000000000000000000000000000 ~"
b00000000000000000000000000000000 !#
b00000000000000000000000000000000 "#
b00000000000000000000000000000000 ##
b00000000000000000000000000000000 $#
b00000000000000000000000000000000 %#
b00000000000000000000000000000000 &#
b00000000000000000000000000000000 '#
b00000000000000000000000000000000 (#
b00000000000000000000000000000000 )#
#3
0#
0F
0i
0y!
00"
09"
0>"
#4
0$
0G
0j
0x!
01"
0:"
0?"
#5
1$
1G
1j
b10100001100100010011101011100101 .!
b00000000000000000000000000000000 /!
b10100001100100010011101011100101 1!
b10100001100100010011101011100101 2!
b11111110000000010000000100010011 <!
b11111110000000010000000100010011 T!
b10100001100100010011101011100101 ]!
b10100001100100010011101011100101 `!
b10100001100100010011101011100101 f!
b10100001100100010011101011100101 i!
b11111110000000010000000100010011 k!
b10100001100100010011101011100101 n!
1x!
b0010 )"
b0011 *"
11"
b10100001100100010011101011100101 2"
b00000000000000000000000000000000 6"
b00101000011001000100111010111001 8"
1:"
b10100001100100010011101011100101 ="
1?"
#6
0$
0G
0j
0x!
01"
0:"
0?"
#7
1$
1G
1j
b00000000000000000000000000000000 <!
b00000000000000000000000000000000 T!
b00000000000000000000000000000000 k!
1x!
b0011 )"
b0100 *"
11"
1:"
1?"
#8
0$
0G
0j
0x!
01"
0:"
0?"
#9
1$
1G
1j
1x!
b0100 )"
b0101 *"
11"
1:"
1?"
#10
0$
0G
0j
0x!
01"
0:"
0?"
#11
1$
1G
1j
b00000000000000000000000000000000 2!
b00000000000000000000000000000100 3!
0D!
0E!
b01 I!
1J!
1K!
0O!
1Q!
1_!
b00000000000000000000000000000000 `!
b01 d!
b00000000000000000000000000000100 e!
b00000000000000000000000000000000 n!
b00000000000000000000000000000100 o!
1x!
0z!
1|!
0~!
1#"
b01 $"
1%"
b0101 )"
b0110 *"
11"
04"
1:"
0;"
1?"
1D"
#12
0$
0G
0j
0x!
01"
0:"
0?"
